{
	"REGISTER_MERCHANT": {
		"method": "POST",
		"endpoint": "/register",
		"request": {
			"data": {
				"merchant_nama": "Dali Outdoor",
				"merchant_jenis_usaha": "Penyewaan Hiking",
				"merchant_nama_pic": "Dali Kewara",
				"merchant_hp": "08819092090",
				"email": "dalikewara@gmail.com",
				"telepon": "011111111",
				"alamat": "Tulangan",
				"kelurahan": "Tulangan",
				"kecamatan": "Tulangan",
				"kota": "Sidoarjo",
				"provinsi": "Jawa Timur",
				"status": "0",
				"lat": "123.456",
				"long": "567.890",
				"created_by": "admin"
			}
		},
		"successResponse": {
	  "code": "00",
	  "message": "Merchant register success.",
	  "data": {
	    "merchant_nama": "Dali Outdoor",
	    "merchant_jenis_usaha": "Penyewaan Hiking",
	    "merchant_nama_pic": "Dali Kewara",
	    "merchant_hp": "08819092091",
	    "email": "dalikewara@gmail.com",
	    "telepon": "011111111",
	    "alamat": "Tulangan",
	    "kelurahan": "Tulangan",
	    "kecamatan": "Tulangan",
	    "kota": "Sidoarjo",
	    "provinsi": "Jawa Timur",
	    "status": "0",
	    "lat": "123.456",
	    "long": "567.890",
	    "created_by": "admin",
	    "merchant_id": "DLTD0017"
	  }
	},
		"failedResponse": {
		  "code": "07",
		  "message": "Hp already exists!.",
		  "data": {
		    "merchant_nama": "Dali Outdoor",
		    "merchant_jenis_usaha": "Penyewaan Hiking",
		    "merchant_nama_pic": "Dali Kewara",
		    "merchant_hp": "08819092090",
		    "email": "dalikewara@gmail.com",
		    "telepon": "011111111",
		    "alamat": "Tulangan",
		    "kelurahan": "Tulangan",
		    "kecamatan": "Tulangan",
		    "kota": "Sidoarjo",
		    "provinsi": "Jawa Timur",
		    "status": "0",
		    "lat": "123.456",
		    "long": "567.890",
		    "created_by": "admin"
		  }
		}
	},


	"GET_MERCHANT": {
		"method": "POST",
		"endpoint": "/merchant/getProfile",
		"request": {
			"data": {
				"merchant_id": "DLTD0007"
			}
		},
		"successResponse": {
	    "code": "00",
	    "message": "Merchant found.",
	    "data": {
        "merchant_nama": "Dali Outdoor",
        "merchant_jenis_usaha": null,
        "merchant_nama_pic": "Dali Kewara",
        "merchant_hp": "08819092090",
        "email": "dalikewara@gmail.com",
        "telepon": "011111111",
        "alamat": "Tulangan",
        "kelurahan": "Tulangan",
        "kecamatan": "Tulangan",
        "kota": "Sidoarjo",
        "provinsi": "Jawa Timur"
	    }
		},
		"failedResponse": {
	    "code": "00",
	    "message": "Merchant not exists.",
	    "data": {
        "q_code": "DBB07",
        "q_message": "Merchant not exists."
	    }
		}
	}
}